Q3
…
    Author

             Alexandra Goh 

Exercise 3

Download the numbats data from Tidy Tuesday, following the instructions on the website.

Filter the data to be sightings after 2010.

numbats <- filter(numbats, year > 2010)
numbats %>%
  arrange(year) # to show filtered numbats dataset

# A tibble: 470 × 16
   decimalLatitude decimalLongitude eventDate           scientificName       
             <dbl>            <dbl> <dttm>              <chr>                
 1           -34.5             139. 2011-12-19 13:00:00 Myrmecobius fasciatus
 2           -34.5             139. 2011-12-09 13:00:00 Myrmecobius fasciatus
 3           -34.5             139. 2011-12-28 13:00:00 Myrmecobius fasciatus
 4           -34.5             139. 2011-12-09 13:00:00 Myrmecobius fasciatus
 5           -34.5             139. 2011-12-20 13:00:00 Myrmecobius fasciatus
 6           -34.5             139. 2011-12-22 13:00:00 Myrmecobius fasciatus
 7           -34.5             139. 2011-12-06 13:00:00 Myrmecobius fasciatus
 8           -34.5             139. 2011-12-15 13:00:00 Myrmecobius fasciatus
 9           -34.5             139. 2011-12-19 13:00:00 Myrmecobius fasciatus
10           -34.5             139. 2011-12-28 13:00:00 Myrmecobius fasciatus
# ℹ 460 more rows
# ℹ 12 more variables: taxonConceptID <chr>, recordID <chr>,
#   dataResourceName <chr>, year <dbl>, month <chr>, wday <chr>, hour <dbl>,
#   day <date>, dryandra <lgl>, prcp <dbl>, tmax <dbl>, tmin <dbl>

Count the number of sightings for each day.

numbat_sightings <- numbats %>%
  group_by(day) %>%
  summarise(sightings = n())

numbat_sightings

# A tibble: 204 × 2
   day        sightings
   <date>         <int>
 1 2011-08-04         2
 2 2011-12-05         1
 3 2011-12-06         1
 4 2011-12-07         4
 5 2011-12-08         1
 6 2011-12-09         2
 7 2011-12-10         3
 8 2011-12-13         1
 9 2011-12-15         2
10 2011-12-19         3
# ℹ 194 more rows
…
